9.807, 2, 0, 0, 0, 0, 0
B2895, 17157.3, 32, -203475, 610808, 2.18621, 18.5808
B2634, 17157.3, 32.0015, -203268, 610710, -4.18619, -12.5808
B2207, 0.00368848, 0.189051, -202581, 605097, -8.73374, 4.20436
B5299, 0.00405324, 0.196956, -198709, 616905, -6.47321, 6.09907
B5629, 2.35359e-06, 0.016471, -228194, 601513, -2.86561, 4.98671
